…
### 2. Clean data

``` r
transit <- data_1 %>%  
  select(line, station_name, station_latitude,station_longitude, route1:route11, entry, vending, entrance_type, ada) %>% 
  mutate(entry=recode(entry,"YES"= TRUE,"NO"= FALSE))

transit
```

    ## # A tibble: 1,868 × 19
    ##    line     station_…¹ stati…² stati…³ route1 route2 route3 route4 route5 route6
    ##    <chr>    <chr>        <dbl>   <dbl> <chr>  <chr>  <chr>  <chr>  <chr>  <chr> 
    ##  1 4 Avenue 25th St       40.7   -74.0 R      <NA>   <NA>   <NA>   <NA>   <NA>  
    ##  2 4 Avenue 25th St       40.7   -74.0 R      <NA>   <NA>   <NA>   <NA>   <NA>  
    ##  3 4 Avenue 36th St       40.7   -74.0 N      R      <NA>   <NA>   <NA>   <NA>  
    ##  4 4 Avenue 36th St       40.7   -74.0 N      R      <NA>   <NA>   <NA>   <NA>  
    ##  5 4 Avenue 36th St       40.7   -74.0 N      R      <NA>   <NA>   <NA>   <NA>  
    ##  6 4 Avenue 45th St       40.6   -74.0 R      <NA>   <NA>   <NA>   <NA>   <NA>  
    ##  7 4 Avenue 45th St       40.6   -74.0 R      <NA>   <NA>   <NA>   <NA>   <NA>  
    ##  8 4 Avenue 45th St       40.6   -74.0 R      <NA>   <NA>   <NA>   <NA>   <NA>  
    ##  9 4 Avenue 45th St       40.6   -74.0 R      <NA>   <NA>   <NA>   <NA>   <NA>  
    ## 10 4 Avenue 53rd St       40.6   -74.0 R      <NA>   <NA>   <NA>   <NA>   <NA>  
    ## # … with 1,858 more rows, 9 more variables: route7 <chr>, route8 <chr>,
    ## #   route9 <chr>, route10 <chr>, route11 <chr>, entry <lgl>, vending <chr>,
    ## #   entrance_type <chr>, ada <lgl>, and abbreviated variable names
    ## #   ¹​station_name, ²​station_latitude, ³​station_longitude
…
-   select the required columns using `select()` in `dplyr`

-   convert the character values in `entry` column into logical values
    (TRUE or FALSE) using `mutate()` and `recode()`

### 3. How many distinct station?

``` r
# method 1
tibble(transit$line,transit$station_name) %>% 
  distinct()
```

    ## # A tibble: 465 × 2
    ##    `transit$line` `transit$station_name`  
    ##    <chr>          <chr>                   
    ##  1 4 Avenue       25th St                 
    ##  2 4 Avenue       36th St                 
    ##  3 4 Avenue       45th St                 
    ##  4 4 Avenue       53rd St                 
    ##  5 4 Avenue       59th St                 
    ##  6 4 Avenue       77th St                 
    ##  7 4 Avenue       86th St                 
    ##  8 4 Avenue       95th St                 
    ##  9 4 Avenue       9th St                  
    ## 10 4 Avenue       Atlantic Av-Barclays Ctr
    ## # … with 455 more rows

### 4. ADA compliant

``` r
transit %>% 
  filter(ada == TRUE) %>% 
  select(station_name, line) %>% 
  distinct()
```

    ## # A tibble: 84 × 2
    ##    station_name                   line           
    ##    <chr>                          <chr>          
    ##  1 Atlantic Av-Barclays Ctr       4 Avenue       
    ##  2 DeKalb Av                      4 Avenue       
    ##  3 Pacific St                     4 Avenue       
    ##  4 Grand Central                  42nd St Shuttle
    ##  5 34th St                        6 Avenue       
    ##  6 47-50th Sts Rockefeller Center 6 Avenue       
    ##  7 Church Av                      6 Avenue       
    ##  8 21st St                        63rd Street    
    ##  9 Lexington Av                   63rd Street    
    ## 10 Roosevelt Island               63rd Street    
    ## # … with 74 more rows
…
